{
    "Id": "m1",
    "Label": "CPUUtilization",
    "StatusCode": "Complete",
    "Timestamps": [
        "2019-08-07T09:00:00+00:00",
        "2019-08-06T09:00:00+00:00",
        "2019-08-05T09:00:00+00:00",
        "2019-08-04T09:00:00+00:00",
        "2019-08-03T09:00:00+00:00",
        "2019-08-02T09:00:00+00:00",
        "2019-08-01T09:00:00+00:00",
        "2019-07-31T09:00:00+00:00",
        "2019-07-30T09:00:00+00:00",
        "2019-07-29T09:00:00+00:00",
        "2019-07-28T09:00:00+00:00",
        "2019-07-27T09:00:00+00:00",
        "2019-07-26T09:00:00+00:00",
        "2019-07-25T09:00:00+00:00",
        "2019-07-24T09:00:00+00:00",
        "2019-07-23T09:00:00+00:00",
        "2019-07-22T09:00:00+00:00",
        "2019-07-21T09:00:00+00:00",
        "2019-07-20T09:00:00+00:00",
        "2019-07-19T09:00:00+00:00",
        "2019-07-18T09:00:00+00:00",
        "2019-07-17T09:00:00+00:00",
        "2019-07-16T09:00:00+00:00",
        "2019-07-15T09:00:00+00:00",
        "2019-07-14T09:00:00+00:00",
        "2019-07-13T09:00:00+00:00",
        "2019-07-12T09:00:00+00:00",
        "2019-07-11T09:00:00+00:00",
        "2019-07-10T09:00:00+00:00",
        "2019-07-09T09:00:00+00:00",
        "2019-07-08T09:00:00+00:00",
        "2019-07-07T09:00:00+00:00",
        "2019-07-06T09:00:00+00:00",
        "2019-07-05T09:00:00+00:00",
        "2019-07-04T09:00:00+00:00",
        "2019-07-03T09:00:00+00:00",
        "2019-07-02T09:00:00+00:00",
        "2019-07-01T09:00:00+00:00",
        "2019-06-30T09:00:00+00:00",
        "2019-06-29T09:00:00+00:00",
        "2019-06-28T09:00:00+00:00",
        "2019-06-27T09:00:00+00:00",
        "2019-06-26T09:00:00+00:00",
        "2019-06-25T09:00:00+00:00",
        "2019-06-24T09:00:00+00:00",
        "2019-06-23T09:00:00+00:00",
        "2019-06-22T09:00:00+00:00",
        "2019-06-21T09:00:00+00:00",
        "2019-06-20T09:00:00+00:00",
        "2019-06-19T09:00:00+00:00",
        "2019-06-18T09:00:00+00:00",
        "2019-06-17T09:00:00+00:00",
        "2019-06-16T09:00:00+00:00",
        "2019-06-15T09:00:00+00:00",
        "2019-06-14T09:00:00+00:00",
        "2019-06-13T09:00:00+00:00",
        "2019-06-12T09:00:00+00:00",
        "2019-06-11T09:00:00+00:00",
        "2019-06-10T09:00:00+00:00",
        "2019-06-09T09:00:00+00:00",
        "2019-06-08T09:00:00+00:00",
        "2019-06-07T09:00:00+00:00",
        "2019-06-06T09:00:00+00:00",
        "2019-06-05T09:00:00+00:00",
        "2019-06-04T09:00:00+00:00",
        "2019-06-03T09:00:00+00:00",
        "2019-06-02T09:00:00+00:00",
        "2019-06-01T09:00:00+00:00",
        "2019-05-31T09:00:00+00:00",
        "2019-05-30T09:00:00+00:00",
        "2019-05-29T09:00:00+00:00",
        "2019-05-28T09:00:00+00:00",
        "2019-05-27T09:00:00+00:00",
        "2019-05-26T09:00:00+00:00",
        "2019-05-25T09:00:00+00:00",
        "2019-05-24T09:00:00+00:00",
        "2019-05-23T09:00:00+00:00",
        "2019-05-22T09:00:00+00:00",
        "2019-05-21T09:00:00+00:00",
        "2019-05-20T09:00:00+00:00",
        "2019-05-19T09:00:00+00:00",
        "2019-05-18T09:00:00+00:00",
        "2019-05-17T09:00:00+00:00",
        "2019-05-16T09:00:00+00:00",
        "2019-05-15T09:00:00+00:00",
        "2019-05-14T09:00:00+00:00",
        "2019-05-13T09:00:00+00:00",
        "2019-05-12T09:00:00+00:00",
        "2019-05-11T09:00:00+00:00",
        "2019-05-10T09:00:00+00:00"
    ],
    "Values": [
        96.6101694915254,
        98.0508474575876,
        96.8644067797005,
        96.5833333332557,
        97.7118644066218,
        54.5833333333333,
        98.9830508474971,
        96.7499999998836,
        97.416666666589,
        96.5833333332557,
        95.8333333333333,
        96.6101694915254,
        95.0847457626724,
        94.8333333333721,
        67.3333333333721,
        71.4406779661412,
        85.3333333332557,
        95.7499999999224,
        69.8305084746947,
        65.0833333334109,
        95.8474576270003,
        100.0,
        65.6666666665114,
        96.5000000000388,
        96.2711864407569,
        96.6949152541189,
        72.1311475409836,
        96.0000000001552,
        95.6779661018133,
        96.9999999999224,
        97.7118644068191,
        98.8983050847063,
        96.5833333332557,
        96.25,
        96.8644067797005,
        60.9999999999612,
        96.25,
        96.6949152543162,
        99.0677966100906,
        96.1016949151753,
        96.949152542294,
        96.8644067797005,
        96.6101694915254,
        96.5254237289319,
        95.8333333333333,
        66.5000000000388,
        97.0338983050847,
        95.1694915254632,
        95.9166666667443,
        94.830508474596,
        69.3333333332945,
        98.3898305084548,
        97.5423728813362,
        96.25,
        96.5254237287346,
        99.6666666667443,
        97.203389830469,
        98.3333333333333,
        55.3333333333527,
        97.203389830469,
        96.6101694915254,
        95.9166666667443,
        96.4406779660425,
        96.5000000000388,
        97.0833333333333,
        96.3333333333139,
        61.5254237287938,
        96.3333333333139,
        98.0508474576863,
        98.5593220339378,
        96.6101694915254,
        96.6949152542176,
        97.0338983050847,
        96.5254237288333,
        96.2711864406582,
        96.7796610169097,
        96.7499999999806,
        95.9322033898897,
        98.1666666666085,
        61.3333333333139,
        95.2499999999418,
        96.8644067796018,
        96.0169491525818,
        97.5833333333139,
        95.6666666667055,
        96.3333333333139,
        96.1016949151753,
        97.0338983050847,
        60.3333333333527,
        96.0169491525818
    ]
}