{
    "InstanceDescription": {
        "CpuOptions": {
            "CoreCount": 2,
            "ThreadsPerCore": 1
        },
        "InstanceId": "i-069a7808addd143c7",
        "InstanceType": "t2.medium",
        "State": {
            "Code": 16,
            "Name": "running"
        },
        "Tags": [
            {
                "Key": "Name",
                "Value": "c04 - bsec-2: compliance: namecheck + kyc"
            }
        ]
    },
    "InstanceId": "i-069a7808addd143c7"
}