{
    "InstanceDescription": {
        "CpuOptions": {
            "CoreCount": 1,
            "ThreadsPerCore": 1
        },
        "InstanceId": "i-e1ca46eb",
        "InstanceType": "t2.micro",
        "State": {
            "Code": 80,
            "Name": "stopped"
        },
        "Tags": [
            {
                "Key": "Name",
                "Value": "c00 - indextraffic-retriever - itr1"
            },
            {
                "Key": "opsworks:layer:itr",
                "Value": "indextraffic-retrieve"
            },
            {
                "Key": "opsworks:instance",
                "Value": "itr1"
            },
            {
                "Key": "opsworks:stack",
                "Value": "indextraffic-retriever"
            }
        ]
    },
    "InstanceId": "i-e1ca46eb"
}