{
    "Id": "m1",
    "Label": "CPUUtilization",
    "StatusCode": "Complete",
    "Timestamps": [
        "2019-08-08T08:00:00+00:00",
        "2019-08-08T07:00:00+00:00",
        "2019-08-08T06:00:00+00:00",
        "2019-08-08T05:00:00+00:00",
        "2019-08-08T04:00:00+00:00",
        "2019-08-08T03:00:00+00:00",
        "2019-08-08T02:00:00+00:00",
        "2019-08-08T01:00:00+00:00",
        "2019-08-08T00:00:00+00:00",
        "2019-08-07T23:00:00+00:00",
        "2019-08-07T22:00:00+00:00",
        "2019-08-07T21:00:00+00:00",
        "2019-08-07T20:00:00+00:00",
        "2019-08-07T19:00:00+00:00",
        "2019-08-07T18:00:00+00:00",
        "2019-08-07T17:00:00+00:00",
        "2019-08-07T16:00:00+00:00",
        "2019-08-07T15:00:00+00:00",
        "2019-08-07T14:00:00+00:00",
        "2019-08-07T13:00:00+00:00",
        "2019-08-07T12:00:00+00:00",
        "2019-08-07T11:00:00+00:00",
        "2019-08-07T10:00:00+00:00",
        "2019-08-07T09:00:00+00:00",
        "2019-08-07T08:00:00+00:00",
        "2019-08-07T07:00:00+00:00",
        "2019-08-07T06:00:00+00:00",
        "2019-08-07T05:00:00+00:00",
        "2019-08-07T04:00:00+00:00",
        "2019-08-07T03:00:00+00:00",
        "2019-08-07T02:00:00+00:00",
        "2019-08-07T01:00:00+00:00",
        "2019-08-07T00:00:00+00:00",
        "2019-08-06T23:00:00+00:00",
        "2019-08-06T22:00:00+00:00",
        "2019-08-06T21:00:00+00:00",
        "2019-08-06T20:00:00+00:00",
        "2019-08-06T19:00:00+00:00",
        "2019-08-06T18:00:00+00:00",
        "2019-08-06T17:00:00+00:00",
        "2019-08-06T16:00:00+00:00",
        "2019-08-06T15:00:00+00:00",
        "2019-08-06T14:00:00+00:00",
        "2019-08-06T13:00:00+00:00",
        "2019-08-06T12:00:00+00:00",
        "2019-08-06T11:00:00+00:00",
        "2019-08-06T10:00:00+00:00",
        "2019-08-06T09:00:00+00:00",
        "2019-08-06T08:00:00+00:00",
        "2019-08-06T07:00:00+00:00",
        "2019-08-06T06:00:00+00:00",
        "2019-08-06T05:00:00+00:00",
        "2019-08-06T04:00:00+00:00",
        "2019-08-06T03:00:00+00:00",
        "2019-08-06T02:00:00+00:00",
        "2019-08-06T01:00:00+00:00",
        "2019-08-06T00:00:00+00:00",
        "2019-08-05T23:00:00+00:00",
        "2019-08-05T22:00:00+00:00",
        "2019-08-05T21:00:00+00:00",
        "2019-08-05T20:00:00+00:00",
        "2019-08-05T19:00:00+00:00",
        "2019-08-05T18:00:00+00:00",
        "2019-08-05T17:00:00+00:00",
        "2019-08-05T16:00:00+00:00",
        "2019-08-05T15:00:00+00:00",
        "2019-08-05T14:00:00+00:00",
        "2019-08-05T13:00:00+00:00",
        "2019-08-05T12:00:00+00:00",
        "2019-08-05T11:00:00+00:00",
        "2019-08-05T10:00:00+00:00",
        "2019-08-05T09:00:00+00:00",
        "2019-08-05T08:00:00+00:00",
        "2019-08-05T07:00:00+00:00",
        "2019-08-05T06:00:00+00:00",
        "2019-08-05T05:00:00+00:00",
        "2019-08-05T04:00:00+00:00",
        "2019-08-05T03:00:00+00:00",
        "2019-08-05T02:00:00+00:00",
        "2019-08-05T01:00:00+00:00",
        "2019-08-05T00:00:00+00:00",
        "2019-08-04T23:00:00+00:00",
        "2019-08-04T22:00:00+00:00",
        "2019-08-04T21:00:00+00:00",
        "2019-08-04T20:00:00+00:00",
        "2019-08-04T19:00:00+00:00",
        "2019-08-04T18:00:00+00:00",
        "2019-08-04T17:00:00+00:00",
        "2019-08-04T16:00:00+00:00",
        "2019-08-04T15:00:00+00:00",
        "2019-08-04T14:00:00+00:00",
        "2019-08-04T13:00:00+00:00",
        "2019-08-04T12:00:00+00:00",
        "2019-08-04T11:00:00+00:00",
        "2019-08-04T10:00:00+00:00",
        "2019-08-04T09:00:00+00:00",
        "2019-08-04T08:00:00+00:00",
        "2019-08-04T07:00:00+00:00",
        "2019-08-04T06:00:00+00:00",
        "2019-08-04T05:00:00+00:00",
        "2019-08-04T04:00:00+00:00",
        "2019-08-04T03:00:00+00:00",
        "2019-08-04T02:00:00+00:00",
        "2019-08-04T01:00:00+00:00",
        "2019-08-04T00:00:00+00:00",
        "2019-08-03T23:00:00+00:00",
        "2019-08-03T22:00:00+00:00",
        "2019-08-03T21:00:00+00:00",
        "2019-08-03T20:00:00+00:00",
        "2019-08-03T19:00:00+00:00",
        "2019-08-03T18:00:00+00:00",
        "2019-08-03T17:00:00+00:00",
        "2019-08-03T16:00:00+00:00",
        "2019-08-03T15:00:00+00:00",
        "2019-08-03T14:00:00+00:00",
        "2019-08-03T13:00:00+00:00",
        "2019-08-03T12:00:00+00:00",
        "2019-08-03T11:00:00+00:00",
        "2019-08-03T10:00:00+00:00",
        "2019-08-03T09:00:00+00:00",
        "2019-08-03T08:00:00+00:00",
        "2019-08-03T07:00:00+00:00",
        "2019-08-03T06:00:00+00:00",
        "2019-08-03T05:00:00+00:00",
        "2019-08-03T04:00:00+00:00",
        "2019-08-03T03:00:00+00:00",
        "2019-08-03T02:00:00+00:00",
        "2019-08-03T01:00:00+00:00",
        "2019-08-03T00:00:00+00:00",
        "2019-08-02T23:00:00+00:00",
        "2019-08-02T22:00:00+00:00",
        "2019-08-02T21:00:00+00:00",
        "2019-08-02T20:00:00+00:00",
        "2019-08-02T19:00:00+00:00",
        "2019-08-02T18:00:00+00:00",
        "2019-08-02T17:00:00+00:00",
        "2019-08-02T16:00:00+00:00",
        "2019-08-02T15:00:00+00:00",
        "2019-08-02T14:00:00+00:00",
        "2019-08-02T13:00:00+00:00",
        "2019-08-02T12:00:00+00:00",
        "2019-08-02T11:00:00+00:00",
        "2019-08-02T10:00:00+00:00",
        "2019-08-02T09:00:00+00:00",
        "2019-08-02T08:00:00+00:00",
        "2019-08-02T07:00:00+00:00",
        "2019-08-02T06:00:00+00:00",
        "2019-08-02T05:00:00+00:00",
        "2019-08-02T04:00:00+00:00",
        "2019-08-02T03:00:00+00:00",
        "2019-08-02T02:00:00+00:00",
        "2019-08-02T01:00:00+00:00",
        "2019-08-02T00:00:00+00:00",
        "2019-08-01T23:00:00+00:00",
        "2019-08-01T22:00:00+00:00",
        "2019-08-01T21:00:00+00:00",
        "2019-08-01T20:00:00+00:00",
        "2019-08-01T19:00:00+00:00",
        "2019-08-01T18:00:00+00:00",
        "2019-08-01T17:00:00+00:00",
        "2019-08-01T16:00:00+00:00",
        "2019-08-01T15:00:00+00:00",
        "2019-08-01T14:00:00+00:00",
        "2019-08-01T13:00:00+00:00",
        "2019-08-01T12:00:00+00:00",
        "2019-08-01T11:00:00+00:00",
        "2019-08-01T10:00:00+00:00",
        "2019-08-01T09:00:00+00:00",
        "2019-08-01T08:00:00+00:00",
        "2019-08-01T07:00:00+00:00",
        "2019-08-01T06:00:00+00:00",
        "2019-08-01T05:00:00+00:00",
        "2019-08-01T04:00:00+00:00",
        "2019-08-01T03:00:00+00:00",
        "2019-08-01T02:00:00+00:00",
        "2019-08-01T01:00:00+00:00",
        "2019-08-01T00:00:00+00:00",
        "2019-07-31T23:00:00+00:00",
        "2019-07-31T22:00:00+00:00",
        "2019-07-31T21:00:00+00:00",
        "2019-07-31T20:00:00+00:00",
        "2019-07-31T19:00:00+00:00",
        "2019-07-31T18:00:00+00:00",
        "2019-07-31T17:00:00+00:00",
        "2019-07-31T16:00:00+00:00",
        "2019-07-31T15:00:00+00:00",
        "2019-07-31T14:00:00+00:00",
        "2019-07-31T13:00:00+00:00",
        "2019-07-31T12:00:00+00:00",
        "2019-07-31T11:00:00+00:00",
        "2019-07-31T10:00:00+00:00",
        "2019-07-31T09:00:00+00:00",
        "2019-07-31T08:00:00+00:00",
        "2019-07-31T07:00:00+00:00",
        "2019-07-31T06:00:00+00:00",
        "2019-07-31T05:00:00+00:00",
        "2019-07-31T04:00:00+00:00",
        "2019-07-31T03:00:00+00:00",
        "2019-07-31T02:00:00+00:00",
        "2019-07-31T01:00:00+00:00",
        "2019-07-31T00:00:00+00:00",
        "2019-07-30T23:00:00+00:00",
        "2019-07-30T22:00:00+00:00",
        "2019-07-30T21:00:00+00:00",
        "2019-07-30T20:00:00+00:00",
        "2019-07-30T19:00:00+00:00",
        "2019-07-30T18:00:00+00:00",
        "2019-07-30T17:00:00+00:00",
        "2019-07-30T16:00:00+00:00",
        "2019-07-30T15:00:00+00:00",
        "2019-07-30T14:00:00+00:00",
        "2019-07-30T13:00:00+00:00",
        "2019-07-30T12:00:00+00:00",
        "2019-07-30T11:00:00+00:00",
        "2019-07-30T10:00:00+00:00",
        "2019-07-30T09:00:00+00:00",
        "2019-07-30T08:00:00+00:00",
        "2019-07-30T07:00:00+00:00",
        "2019-07-30T06:00:00+00:00",
        "2019-07-30T05:00:00+00:00",
        "2019-07-30T04:00:00+00:00",
        "2019-07-30T03:00:00+00:00",
        "2019-07-30T02:00:00+00:00",
        "2019-07-30T01:00:00+00:00",
        "2019-07-30T00:00:00+00:00",
        "2019-07-29T23:00:00+00:00",
        "2019-07-29T22:00:00+00:00",
        "2019-07-29T21:00:00+00:00",
        "2019-07-29T20:00:00+00:00",
        "2019-07-29T19:00:00+00:00",
        "2019-07-29T18:00:00+00:00",
        "2019-07-29T17:00:00+00:00",
        "2019-07-29T16:00:00+00:00",
        "2019-07-29T15:00:00+00:00",
        "2019-07-29T14:00:00+00:00",
        "2019-07-29T13:00:00+00:00",
        "2019-07-29T12:00:00+00:00",
        "2019-07-29T11:00:00+00:00",
        "2019-07-29T10:00:00+00:00",
        "2019-07-29T09:00:00+00:00",
        "2019-07-29T08:00:00+00:00",
        "2019-07-29T07:00:00+00:00",
        "2019-07-29T06:00:00+00:00",
        "2019-07-29T05:00:00+00:00",
        "2019-07-29T04:00:00+00:00",
        "2019-07-29T03:00:00+00:00",
        "2019-07-29T02:00:00+00:00",
        "2019-07-29T01:00:00+00:00",
        "2019-07-29T00:00:00+00:00",
        "2019-07-28T23:00:00+00:00",
        "2019-07-28T22:00:00+00:00",
        "2019-07-28T21:00:00+00:00",
        "2019-07-28T20:00:00+00:00",
        "2019-07-28T19:00:00+00:00",
        "2019-07-28T18:00:00+00:00",
        "2019-07-28T17:00:00+00:00",
        "2019-07-28T16:00:00+00:00",
        "2019-07-28T15:00:00+00:00",
        "2019-07-28T14:00:00+00:00",
        "2019-07-28T13:00:00+00:00",
        "2019-07-28T12:00:00+00:00",
        "2019-07-28T11:00:00+00:00",
        "2019-07-28T10:00:00+00:00",
        "2019-07-28T09:00:00+00:00",
        "2019-07-28T08:00:00+00:00",
        "2019-07-28T07:00:00+00:00",
        "2019-07-28T06:00:00+00:00",
        "2019-07-28T05:00:00+00:00",
        "2019-07-28T04:00:00+00:00",
        "2019-07-28T03:00:00+00:00",
        "2019-07-28T02:00:00+00:00",
        "2019-07-28T01:00:00+00:00",
        "2019-07-28T00:00:00+00:00",
        "2019-07-27T23:00:00+00:00",
        "2019-07-27T22:00:00+00:00",
        "2019-07-27T21:00:00+00:00",
        "2019-07-27T20:00:00+00:00",
        "2019-07-27T19:00:00+00:00",
        "2019-07-27T18:00:00+00:00",
        "2019-07-27T17:00:00+00:00",
        "2019-07-27T16:00:00+00:00",
        "2019-07-27T15:00:00+00:00",
        "2019-07-27T14:00:00+00:00",
        "2019-07-27T13:00:00+00:00",
        "2019-07-27T12:00:00+00:00",
        "2019-07-27T11:00:00+00:00",
        "2019-07-27T10:00:00+00:00",
        "2019-07-27T09:00:00+00:00",
        "2019-07-27T08:00:00+00:00",
        "2019-07-27T07:00:00+00:00",
        "2019-07-27T06:00:00+00:00",
        "2019-07-27T05:00:00+00:00",
        "2019-07-27T04:00:00+00:00",
        "2019-07-27T03:00:00+00:00",
        "2019-07-27T02:00:00+00:00",
        "2019-07-27T01:00:00+00:00",
        "2019-07-27T00:00:00+00:00",
        "2019-07-26T23:00:00+00:00",
        "2019-07-26T22:00:00+00:00",
        "2019-07-26T21:00:00+00:00",
        "2019-07-26T20:00:00+00:00",
        "2019-07-26T19:00:00+00:00",
        "2019-07-26T18:00:00+00:00",
        "2019-07-26T17:00:00+00:00",
        "2019-07-26T16:00:00+00:00",
        "2019-07-26T15:00:00+00:00",
        "2019-07-26T14:00:00+00:00",
        "2019-07-26T13:00:00+00:00",
        "2019-07-26T12:00:00+00:00",
        "2019-07-26T11:00:00+00:00",
        "2019-07-26T10:00:00+00:00",
        "2019-07-26T09:00:00+00:00",
        "2019-07-26T08:00:00+00:00",
        "2019-07-26T07:00:00+00:00",
        "2019-07-26T06:00:00+00:00",
        "2019-07-26T05:00:00+00:00",
        "2019-07-26T04:00:00+00:00",
        "2019-07-26T03:00:00+00:00",
        "2019-07-26T02:00:00+00:00",
        "2019-07-26T01:00:00+00:00",
        "2019-07-26T00:00:00+00:00",
        "2019-07-25T23:00:00+00:00",
        "2019-07-25T22:00:00+00:00",
        "2019-07-25T21:00:00+00:00",
        "2019-07-25T20:00:00+00:00",
        "2019-07-25T19:00:00+00:00",
        "2019-07-25T18:00:00+00:00",
        "2019-07-25T17:00:00+00:00",
        "2019-07-25T16:00:00+00:00",
        "2019-07-25T15:00:00+00:00",
        "2019-07-25T14:00:00+00:00",
        "2019-07-25T13:00:00+00:00",
        "2019-07-25T12:00:00+00:00",
        "2019-07-25T11:00:00+00:00",
        "2019-07-25T10:00:00+00:00",
        "2019-07-25T09:00:00+00:00",
        "2019-07-25T08:00:00+00:00",
        "2019-07-25T07:00:00+00:00",
        "2019-07-25T06:00:00+00:00",
        "2019-07-25T05:00:00+00:00",
        "2019-07-25T04:00:00+00:00",
        "2019-07-25T03:00:00+00:00",
        "2019-07-25T02:00:00+00:00",
        "2019-07-25T01:00:00+00:00",
        "2019-07-25T00:00:00+00:00",
        "2019-07-24T23:00:00+00:00",
        "2019-07-24T22:00:00+00:00",
        "2019-07-24T21:00:00+00:00",
        "2019-07-24T20:00:00+00:00",
        "2019-07-24T19:00:00+00:00",
        "2019-07-24T18:00:00+00:00",
        "2019-07-24T17:00:00+00:00",
        "2019-07-24T16:00:00+00:00",
        "2019-07-24T15:00:00+00:00",
        "2019-07-24T14:00:00+00:00",
        "2019-07-24T13:00:00+00:00",
        "2019-07-24T12:00:00+00:00",
        "2019-07-24T11:00:00+00:00",
        "2019-07-24T10:00:00+00:00",
        "2019-07-24T09:00:00+00:00",
        "2019-07-24T08:00:00+00:00",
        "2019-07-24T07:00:00+00:00",
        "2019-07-24T06:00:00+00:00",
        "2019-07-24T05:00:00+00:00",
        "2019-07-24T04:00:00+00:00",
        "2019-07-24T03:00:00+00:00",
        "2019-07-24T02:00:00+00:00",
        "2019-07-24T01:00:00+00:00",
        "2019-07-24T00:00:00+00:00",
        "2019-07-23T23:00:00+00:00",
        "2019-07-23T22:00:00+00:00",
        "2019-07-23T21:00:00+00:00",
        "2019-07-23T20:00:00+00:00",
        "2019-07-23T19:00:00+00:00",
        "2019-07-23T18:00:00+00:00",
        "2019-07-23T17:00:00+00:00",
        "2019-07-23T16:00:00+00:00",
        "2019-07-23T15:00:00+00:00",
        "2019-07-23T14:00:00+00:00",
        "2019-07-23T13:00:00+00:00",
        "2019-07-23T12:00:00+00:00",
        "2019-07-23T11:00:00+00:00",
        "2019-07-23T10:00:00+00:00",
        "2019-07-23T09:00:00+00:00",
        "2019-07-23T08:00:00+00:00",
        "2019-07-23T07:00:00+00:00",
        "2019-07-23T06:00:00+00:00",
        "2019-07-23T05:00:00+00:00",
        "2019-07-23T04:00:00+00:00",
        "2019-07-23T03:00:00+00:00",
        "2019-07-23T02:00:00+00:00",
        "2019-07-23T01:00:00+00:00",
        "2019-07-23T00:00:00+00:00",
        "2019-07-22T23:00:00+00:00",
        "2019-07-22T22:00:00+00:00",
        "2019-07-22T21:00:00+00:00",
        "2019-07-22T20:00:00+00:00",
        "2019-07-22T19:00:00+00:00",
        "2019-07-22T18:00:00+00:00",
        "2019-07-22T17:00:00+00:00",
        "2019-07-22T16:00:00+00:00",
        "2019-07-22T15:00:00+00:00",
        "2019-07-22T14:00:00+00:00",
        "2019-07-22T13:00:00+00:00",
        "2019-07-22T12:00:00+00:00",
        "2019-07-22T11:00:00+00:00",
        "2019-07-22T10:00:00+00:00",
        "2019-07-22T09:00:00+00:00",
        "2019-07-22T08:00:00+00:00",
        "2019-07-22T07:00:00+00:00",
        "2019-07-22T06:00:00+00:00",
        "2019-07-22T05:00:00+00:00",
        "2019-07-22T04:00:00+00:00",
        "2019-07-22T03:00:00+00:00",
        "2019-07-22T02:00:00+00:00",
        "2019-07-22T01:00:00+00:00",
        "2019-07-22T00:00:00+00:00",
        "2019-07-21T23:00:00+00:00",
        "2019-07-21T22:00:00+00:00",
        "2019-07-21T21:00:00+00:00",
        "2019-07-21T20:00:00+00:00",
        "2019-07-21T19:00:00+00:00",
        "2019-07-21T18:00:00+00:00",
        "2019-07-21T17:00:00+00:00",
        "2019-07-21T16:00:00+00:00",
        "2019-07-21T15:00:00+00:00",
        "2019-07-21T14:00:00+00:00",
        "2019-07-21T13:00:00+00:00",
        "2019-07-21T12:00:00+00:00",
        "2019-07-21T11:00:00+00:00",
        "2019-07-21T10:00:00+00:00",
        "2019-07-21T09:00:00+00:00",
        "2019-07-21T08:00:00+00:00",
        "2019-07-21T07:00:00+00:00",
        "2019-07-21T06:00:00+00:00",
        "2019-07-21T05:00:00+00:00",
        "2019-07-21T04:00:00+00:00",
        "2019-07-21T03:00:00+00:00",
        "2019-07-21T02:00:00+00:00",
        "2019-07-21T01:00:00+00:00",
        "2019-07-21T00:00:00+00:00",
        "2019-07-20T23:00:00+00:00",
        "2019-07-20T22:00:00+00:00",
        "2019-07-20T21:00:00+00:00",
        "2019-07-20T20:00:00+00:00",
        "2019-07-20T19:00:00+00:00",
        "2019-07-20T18:00:00+00:00",
        "2019-07-20T17:00:00+00:00",
        "2019-07-20T16:00:00+00:00",
        "2019-07-20T15:00:00+00:00",
        "2019-07-20T14:00:00+00:00",
        "2019-07-20T13:00:00+00:00",
        "2019-07-20T12:00:00+00:00",
        "2019-07-20T11:00:00+00:00",
        "2019-07-20T10:00:00+00:00",
        "2019-07-20T09:00:00+00:00",
        "2019-07-20T08:00:00+00:00",
        "2019-07-20T07:00:00+00:00",
        "2019-07-20T06:00:00+00:00",
        "2019-07-20T05:00:00+00:00",
        "2019-07-20T04:00:00+00:00",
        "2019-07-20T03:00:00+00:00",
        "2019-07-20T02:00:00+00:00",
        "2019-07-20T01:00:00+00:00",
        "2019-07-20T00:00:00+00:00",
        "2019-07-19T23:00:00+00:00",
        "2019-07-19T22:00:00+00:00",
        "2019-07-19T21:00:00+00:00",
        "2019-07-19T20:00:00+00:00",
        "2019-07-19T19:00:00+00:00",
        "2019-07-19T18:00:00+00:00",
        "2019-07-19T17:00:00+00:00",
        "2019-07-19T16:00:00+00:00",
        "2019-07-19T15:00:00+00:00",
        "2019-07-19T14:00:00+00:00",
        "2019-07-19T13:00:00+00:00",
        "2019-07-19T12:00:00+00:00",
        "2019-07-19T11:00:00+00:00",
        "2019-07-19T10:00:00+00:00",
        "2019-07-19T09:00:00+00:00",
        "2019-07-19T08:00:00+00:00",
        "2019-07-19T07:00:00+00:00",
        "2019-07-19T06:00:00+00:00",
        "2019-07-19T05:00:00+00:00",
        "2019-07-19T04:00:00+00:00",
        "2019-07-19T03:00:00+00:00",
        "2019-07-19T02:00:00+00:00",
        "2019-07-19T01:00:00+00:00",
        "2019-07-19T00:00:00+00:00",
        "2019-07-18T23:00:00+00:00",
        "2019-07-18T22:00:00+00:00",
        "2019-07-18T21:00:00+00:00",
        "2019-07-18T20:00:00+00:00",
        "2019-07-18T19:00:00+00:00",
        "2019-07-18T18:00:00+00:00",
        "2019-07-18T17:00:00+00:00",
        "2019-07-18T16:00:00+00:00",
        "2019-07-18T15:00:00+00:00",
        "2019-07-18T14:00:00+00:00",
        "2019-07-18T13:00:00+00:00",
        "2019-07-18T12:00:00+00:00",
        "2019-07-18T11:00:00+00:00",
        "2019-07-18T10:00:00+00:00",
        "2019-07-18T09:00:00+00:00",
        "2019-07-18T08:00:00+00:00",
        "2019-07-18T07:00:00+00:00",
        "2019-07-18T06:00:00+00:00",
        "2019-07-18T05:00:00+00:00",
        "2019-07-18T04:00:00+00:00",
        "2019-07-18T03:00:00+00:00",
        "2019-07-18T02:00:00+00:00",
        "2019-07-18T01:00:00+00:00",
        "2019-07-18T00:00:00+00:00",
        "2019-07-17T23:00:00+00:00",
        "2019-07-17T22:00:00+00:00",
        "2019-07-17T21:00:00+00:00",
        "2019-07-17T20:00:00+00:00",
        "2019-07-17T19:00:00+00:00",
        "2019-07-17T18:00:00+00:00",
        "2019-07-17T17:00:00+00:00",
        "2019-07-17T16:00:00+00:00",
        "2019-07-17T15:00:00+00:00",
        "2019-07-17T14:00:00+00:00",
        "2019-07-17T13:00:00+00:00",
        "2019-07-17T12:00:00+00:00",
        "2019-07-17T11:00:00+00:00",
        "2019-07-17T10:00:00+00:00",
        "2019-07-17T09:00:00+00:00",
        "2019-07-17T08:00:00+00:00",
        "2019-07-17T07:00:00+00:00",
        "2019-07-17T06:00:00+00:00",
        "2019-07-17T05:00:00+00:00",
        "2019-07-17T04:00:00+00:00",
        "2019-07-17T03:00:00+00:00",
        "2019-07-17T02:00:00+00:00",
        "2019-07-17T01:00:00+00:00",
        "2019-07-17T00:00:00+00:00",
        "2019-07-16T23:00:00+00:00",
        "2019-07-16T22:00:00+00:00",
        "2019-07-16T21:00:00+00:00",
        "2019-07-16T20:00:00+00:00",
        "2019-07-16T19:00:00+00:00",
        "2019-07-16T18:00:00+00:00",
        "2019-07-16T17:00:00+00:00",
        "2019-07-16T16:00:00+00:00",
        "2019-07-16T15:00:00+00:00",
        "2019-07-16T14:00:00+00:00",
        "2019-07-16T13:00:00+00:00",
        "2019-07-16T12:00:00+00:00",
        "2019-07-16T11:00:00+00:00",
        "2019-07-16T10:00:00+00:00",
        "2019-07-16T09:00:00+00:00",
        "2019-07-16T08:00:00+00:00",
        "2019-07-16T07:00:00+00:00",
        "2019-07-16T06:00:00+00:00",
        "2019-07-16T05:00:00+00:00",
        "2019-07-16T04:00:00+00:00",
        "2019-07-16T03:00:00+00:00",
        "2019-07-16T02:00:00+00:00",
        "2019-07-16T01:00:00+00:00",
        "2019-07-16T00:00:00+00:00",
        "2019-07-15T23:00:00+00:00",
        "2019-07-15T22:00:00+00:00",
        "2019-07-15T21:00:00+00:00",
        "2019-07-15T20:00:00+00:00",
        "2019-07-15T19:00:00+00:00",
        "2019-07-15T18:00:00+00:00",
        "2019-07-15T17:00:00+00:00",
        "2019-07-15T16:00:00+00:00",
        "2019-07-15T15:00:00+00:00",
        "2019-07-15T14:00:00+00:00",
        "2019-07-15T13:00:00+00:00",
        "2019-07-15T12:00:00+00:00",
        "2019-07-15T11:00:00+00:00",
        "2019-07-15T10:00:00+00:00",
        "2019-07-15T09:00:00+00:00",
        "2019-07-15T08:00:00+00:00",
        "2019-07-15T07:00:00+00:00",
        "2019-07-15T06:00:00+00:00",
        "2019-07-15T05:00:00+00:00",
        "2019-07-15T04:00:00+00:00",
        "2019-07-15T03:00:00+00:00",
        "2019-07-15T02:00:00+00:00",
        "2019-07-15T01:00:00+00:00",
        "2019-07-15T00:00:00+00:00",
        "2019-07-14T23:00:00+00:00",
        "2019-07-14T22:00:00+00:00",
        "2019-07-14T21:00:00+00:00",
        "2019-07-14T20:00:00+00:00",
        "2019-07-14T19:00:00+00:00",
        "2019-07-14T18:00:00+00:00",
        "2019-07-14T17:00:00+00:00",
        "2019-07-14T16:00:00+00:00",
        "2019-07-14T15:00:00+00:00",
        "2019-07-14T14:00:00+00:00",
        "2019-07-14T13:00:00+00:00",
        "2019-07-14T12:00:00+00:00",
        "2019-07-14T11:00:00+00:00",
        "2019-07-14T10:00:00+00:00",
        "2019-07-14T09:00:00+00:00",
        "2019-07-14T08:00:00+00:00",
        "2019-07-14T07:00:00+00:00",
        "2019-07-14T06:00:00+00:00",
        "2019-07-14T05:00:00+00:00",
        "2019-07-14T04:00:00+00:00",
        "2019-07-14T03:00:00+00:00",
        "2019-07-14T02:00:00+00:00",
        "2019-07-14T01:00:00+00:00",
        "2019-07-14T00:00:00+00:00",
        "2019-07-13T23:00:00+00:00",
        "2019-07-13T22:00:00+00:00",
        "2019-07-13T21:00:00+00:00",
        "2019-07-13T20:00:00+00:00",
        "2019-07-13T19:00:00+00:00",
        "2019-07-13T18:00:00+00:00",
        "2019-07-13T17:00:00+00:00",
        "2019-07-13T16:00:00+00:00",
        "2019-07-13T15:00:00+00:00",
        "2019-07-13T14:00:00+00:00",
        "2019-07-13T13:00:00+00:00",
        "2019-07-13T12:00:00+00:00",
        "2019-07-13T11:00:00+00:00",
        "2019-07-13T10:00:00+00:00",
        "2019-07-13T09:00:00+00:00",
        "2019-07-13T08:00:00+00:00",
        "2019-07-13T07:00:00+00:00",
        "2019-07-13T06:00:00+00:00",
        "2019-07-13T05:00:00+00:00",
        "2019-07-13T04:00:00+00:00",
        "2019-07-13T03:00:00+00:00",
        "2019-07-13T02:00:00+00:00",
        "2019-07-13T01:00:00+00:00",
        "2019-07-13T00:00:00+00:00",
        "2019-07-12T23:00:00+00:00",
        "2019-07-12T22:00:00+00:00",
        "2019-07-12T21:00:00+00:00",
        "2019-07-12T20:00:00+00:00",
        "2019-07-12T19:00:00+00:00",
        "2019-07-12T18:00:00+00:00",
        "2019-07-12T17:00:00+00:00",
        "2019-07-12T16:00:00+00:00",
        "2019-07-12T15:00:00+00:00",
        "2019-07-12T14:00:00+00:00",
        "2019-07-12T13:00:00+00:00",
        "2019-07-12T12:00:00+00:00",
        "2019-07-12T11:00:00+00:00",
        "2019-07-12T10:00:00+00:00",
        "2019-07-12T09:00:00+00:00",
        "2019-07-12T08:00:00+00:00",
        "2019-07-12T07:00:00+00:00",
        "2019-07-12T06:00:00+00:00",
        "2019-07-12T05:00:00+00:00",
        "2019-07-12T04:00:00+00:00",
        "2019-07-12T03:00:00+00:00",
        "2019-07-12T02:00:00+00:00",
        "2019-07-12T01:00:00+00:00",
        "2019-07-12T00:00:00+00:00",
        "2019-07-11T23:00:00+00:00",
        "2019-07-11T22:00:00+00:00",
        "2019-07-11T21:00:00+00:00",
        "2019-07-11T20:00:00+00:00",
        "2019-07-11T19:00:00+00:00",
        "2019-07-11T18:00:00+00:00",
        "2019-07-11T17:00:00+00:00",
        "2019-07-11T16:00:00+00:00",
        "2019-07-11T15:00:00+00:00",
        "2019-07-11T14:00:00+00:00",
        "2019-07-11T13:00:00+00:00",
        "2019-07-11T12:00:00+00:00",
        "2019-07-11T11:00:00+00:00",
        "2019-07-11T10:00:00+00:00",
        "2019-07-11T09:00:00+00:00",
        "2019-07-11T08:00:00+00:00",
        "2019-07-11T07:00:00+00:00",
        "2019-07-11T06:00:00+00:00",
        "2019-07-11T05:00:00+00:00",
        "2019-07-11T04:00:00+00:00",
        "2019-07-11T03:00:00+00:00",
        "2019-07-11T02:00:00+00:00",
        "2019-07-11T01:00:00+00:00",
        "2019-07-11T00:00:00+00:00",
        "2019-07-10T23:00:00+00:00",
        "2019-07-10T22:00:00+00:00",
        "2019-07-10T21:00:00+00:00",
        "2019-07-10T20:00:00+00:00",
        "2019-07-10T19:00:00+00:00",
        "2019-07-10T18:00:00+00:00",
        "2019-07-10T17:00:00+00:00",
        "2019-07-10T16:00:00+00:00",
        "2019-07-10T15:00:00+00:00",
        "2019-07-10T14:00:00+00:00",
        "2019-07-10T13:00:00+00:00",
        "2019-07-10T12:00:00+00:00",
        "2019-07-10T11:00:00+00:00",
        "2019-07-10T10:00:00+00:00",
        "2019-07-10T09:00:00+00:00",
        "2019-07-10T08:00:00+00:00",
        "2019-07-10T07:00:00+00:00",
        "2019-07-10T06:00:00+00:00",
        "2019-07-10T05:00:00+00:00",
        "2019-07-10T04:00:00+00:00",
        "2019-07-10T03:00:00+00:00",
        "2019-07-10T02:00:00+00:00",
        "2019-07-10T01:00:00+00:00",
        "2019-07-10T00:00:00+00:00",
        "2019-07-09T23:00:00+00:00",
        "2019-07-09T22:00:00+00:00",
        "2019-07-09T21:00:00+00:00",
        "2019-07-09T20:00:00+00:00",
        "2019-07-09T19:00:00+00:00",
        "2019-07-09T18:00:00+00:00",
        "2019-07-09T17:00:00+00:00",
        "2019-07-09T16:00:00+00:00",
        "2019-07-09T15:00:00+00:00",
        "2019-07-09T14:00:00+00:00",
        "2019-07-09T13:00:00+00:00",
        "2019-07-09T12:00:00+00:00",
        "2019-07-09T11:00:00+00:00",
        "2019-07-09T10:00:00+00:00",
        "2019-07-09T09:00:00+00:00"
    ],
    "Values": [
        6.72131147537167,
        84.4166666667055,
        8.83333333341094,
        5.83333333333333,
        5.93220338983051,
        5.75000000011642,
        5.66666666651145,
        5.58333333329453,
        12.5833333334109,
        9.33333333348855,
        6.01694915242398,
        5.83333333333333,
        60.5084745761923,
        59.0000000000388,
        5.67796610165545,
        5.91666666655025,
        5.84745762723703,
        96.6101694915254,
        5.65573770503254,
        5.91666666655025,
        5.67796610185277,
        5.81967213122388,
        5.74999999992239,
        5.65573770503254,
        5.90163934422413,
        5.4918032788412,
        8.85245901643161,
        5.66666666670547,
        5.58333333329453,
        11.9999999999224,
        5.57377049184145,
        5.66666666670547,
        5.83333333333333,
        8.83333333321692,
        5.73770491803279,
        5.75000000011642,
        5.75000000011642,
        56.1864406780056,
        5.83333333333333,
        5.83333333333333,
        5.66666666670547,
        82.7118644066613,
        6.0169491526213,
        6.08333333337214,
        98.0508474575876,
        97.2499999999612,
        5.83333333333333,
        5.93220338983051,
        6.08333333337214,
        5.99999999996119,
        14.6666666667443,
        5.93220338983051,
        5.67796610165545,
        5.66666666670547,
        5.58333333329453,
        5.83333333333333,
        12.1311475410218,
        8.75,
        5.83333333333333,
        5.84745762703972,
        61.7796610168702,
        61.2295081966831,
        5.58333333329453,
        5.66666666651145,
        5.76271186444624,
        96.8644067797005,
        5.66666666670547,
        5.90163934422413,
        5.75000000011642,
        12.3333333333721,
        12.2499999999612,
        5.74999999992239,
        5.83333333333333,
        5.74999999992239,
        13.0833333332945,
        5.76271186424893,
        5.74999999992239,
        5.50847457627119,
        5.42372881367771,
        5.67796610185277,
        5.74999999992239,
        8.4999999999612,
        5.99999999996119,
        6.16666666658906,
        60.8333333333333,
        60.0833333334109,
        5.83333333333333,
        5.73770491803279,
        5.58333333329453,
        96.5833333332557,
        5.65573770503254,
        5.84745762723703,
        5.59322033886466,
        5.83333333333333,
        5.74999999992239,
        5.76271186424893,
        12.2033898306269,
        5.74999999992239,
        8.68852459024027,
        5.76271186444624,
        5.74999999992239,
        5.83333333333333,
        5.74999999992239,
        5.50000000007761,
        5.58333333329453,
        8.52459016385809,
        5.91666666674428,
        5.66666666651145,
        5.59322033906198,
        55.5737704918415,
        5.83333333333333,
        5.73770491803279,
        5.73770491803279,
        97.7118644066218,
        5.59322033906198,
        5.90163934441497,
        5.93220338983051,
        5.91666666674428,
        5.74999999992239,
        5.76271186444624,
        5.67796610165545,
        12.0833333333333,
        8.75,
        5.57377049184145,
        5.93220338983051,
        5.84745762703972,
        5.83333333333333,
        5.84745762703972,
        6.01694915242398,
        8.68852459024027,
        5.67796610165545,
        5.84745762703972,
        5.83333333333333,
        54.5833333333333,
        5.93220338983051,
        5.84745762703972,
        6.0169491526213,
        18.2203389830508,
        5.90163934422413,
        5.73770491803279,
        6.06557377060631,
        5.81967213122388,
        5.98360655741522,
        5.81967213122388,
        5.93220338983051,
        7.20338983050847,
        9.23728813571161,
        5.93220338983051,
        13.2786885247428,
        5.90163934422413,
        5.93220338983051,
        5.93220338983051,
        5.57377049184145,
        8.33333333333333,
        6.10169491521477,
        5.59322033906198,
        5.83333333333333,
        55.5833333334886,
        6.10169491541209,
        5.91666666674428,
        6.91666666670547,
        97.203389830469,
        5.83333333333333,
        5.83333333333333,
        5.91666666674428,
        97.0833333333333,
        98.9830508474971,
        71.5573770492185,
        93.1967213114372,
        90.491803278803,
        9.09836065581404,
        14.344262295082,
        6.0169491526213,
        5.90163934422413,
        6.08333333337214,
        5.91666666655025,
        5.76271186444624,
        8.22033898301138,
        5.99999999996119,
        6.44067796598331,
        60.1694915254237,
        60.9016393441096,
        5.67796610185277,
        6.00000000015522,
        6.91666666670547,
        96.7499999998836,
        5.91666666655025,
        6.50000000003881,
        6.91666666670547,
        6.61016949156489,
        5.93220338983051,
        6.10169491541209,
        6.27118644059904,
        5.91666666655025,
        18.1666666667055,
        10.2500000000388,
        5.91666666655025,
        5.99999999996119,
        6.44067796618062,
        5.93220338983051,
        5.84745762703972,
        9.83050847445788,
        5.99999999996119,
        5.91666666655025,
        61.8333333332945,
        93.666666666589,
        97.416666666589,
        60.8333333333333,
        94.6666666665503,
        43.5593220338194,
        13.2203389831298,
        5.73770491803279,
        19.2622950819672,
        64.3333333332945,
        5.81967213103303,
        5.50000000007761,
        5.41666666666667,
        6.06557377041547,
        10.4918032787267,
        5.75000000011642,
        5.58333333329453,
        5.91666666655025,
        5.73770491803279,
        5.66666666651145,
        5.66666666670547,
        8.91666666662786,
        5.91666666655025,
        42.8333333332557,
        53.6065573769728,
        55.1694915253053,
        6.08333333317811,
        6.08333333337214,
        6.25,
        96.5833333332557,
        65.8333333333333,
        6.61016949156489,
        6.58333333325572,
        92.7500000000388,
        88.3050847457232,
        61.9166666667055,
        5.58333333329453,
        7.45762711868353,
        8.83333333341094,
        5.4237288134804,
        5.73770491803279,
        5.59322033886466,
        5.58333333329453,
        5.66666666670547,
        5.73770491803279,
        8.81355932195497,
        5.67796610165545,
        5.58333333329453,
        62.6271186441862,
        59.6666666665502,
        5.59322033886466,
        5.59322033886466,
        5.67796610165545,
        95.8333333333333,
        5.50847457627119,
        5.76271186444624,
        5.67796610165545,
        5.66666666670547,
        5.57377049184145,
        5.50847457627119,
        5.83333333333333,
        5.50000000007761,
        9.0000000000388,
        12.7118644067797,
        5.58333333329453,
        5.50847457627119,
        5.59322033906198,
        5.58333333329453,
        5.33898305088692,
        9.0000000000388,
        5.84745762703972,
        5.59322033906198,
        62.2033898304296,
        61.3333333334109,
        5.50000000007761,
        5.59322033906198,
        5.83333333333333,
        96.6101694915254,
        5.66666666670547,
        5.93220338983051,
        5.59322033906198,
        5.42372881367771,
        5.73770491803279,
        5.42372881367771,
        5.66666666670547,
        5.75000000011642,
        30.4166666666667,
        5.41666666666667,
        5.49999999988358,
        5.74999999992239,
        5.58333333348855,
        15.2542372881356,
        5.50000000007761,
        9.33333333329453,
        5.50847457627119,
        5.58333333329453,
        60.4166666666667,
        59.0163934426229,
        39.0833333334498,
        94.1666666666667,
        60.1666666666279,
        95.0847457626724,
        5.59322033906198,
        5.67796610165545,
        5.75000000011642,
        5.41666666666667,
        5.57377049184145,
        12.2881355932203,
        5.49180327865036,
        15.6666666667055,
        8.99999999984478,
        5.58333333329453,
        5.74999999992239,
        5.83333333333333,
        5.50847457627119,
        5.58333333329453,
        5.83333333333333,
        8.99999999984478,
        5.83333333333333,
        5.91666666655025,
        60.8333333333333,
        59.3333333332945,
        5.81967213103303,
        6.06557377041547,
        5.84745762703972,
        94.8333333333721,
        5.91666666655025,
        5.73770491803279,
        5.50847457627119,
        5.83333333333333,
        5.67796610165545,
        5.91666666655025,
        5.83333333333333,
        5.81967213122388,
        67.3333333333721,
        5.76271186444624,
        5.74999999992239,
        5.99999999996119,
        5.66666666670547,
        5.74999999992239,
        14.8333333331781,
        9.16666666666667,
        5.73770491803279,
        5.83333333333333,
        61.1666666667831,
        59.5833333333333,
        5.67796610165545,
        5.99999999996119,
        5.75000000011642,
        8.75,
        5.58333333329453,
        5.83333333333333,
        12.0833333333333,
        5.83333333333333,
        5.76271186444624,
        6.0169491526213,
        5.76271186444624,
        5.57377049184145,
        8.7288135593615,
        5.75000000011642,
        5.50000000007761,
        5.65573770503254,
        5.50847457627119,
        13.3333333333333,
        5.73770491803279,
        8.55932203397723,
        5.90163934422413,
        5.66666666670547,
        5.74999999992239,
        53.6440677966496,
        5.57377049184145,
        5.83333333333333,
        5.81967213103303,
        71.4406779661412,
        5.91666666674428,
        5.58333333329453,
        6.83333333329453,
        68.8333333334109,
        13.1666666667055,
        54.5081967213115,
        85.3333333332557,
        5.91666666674428,
        8.75,
        5.84745762703972,
        5.83333333333333,
        5.40983606565011,
        5.75000000011642,
        5.50000000007761,
        5.74999999992239,
        9.23728813551429,
        5.84745762703972,
        5.73770491803279,
        6.41666666662786,
        55.7627118644462,
        5.81967213122388,
        5.83333333333333,
        5.90163934441497,
        71.9166666667055,
        5.58333333348855,
        5.65573770484169,
        5.67796610165545,
        5.58333333348855,
        5.91666666674428,
        5.74999999992239,
        9.01639344262295,
        5.73770491803279,
        8.75,
        5.58333333329453,
        5.76271186424893,
        5.75000000011642,
        5.74999999992239,
        5.74999999992239,
        5.81967213122388,
        9.0000000000388,
        5.59322033886466,
        5.98360655741522,
        62.1186440676388,
        58.8333333332169,
        5.91666666674428,
        5.65573770484169,
        5.73770491803279,
        95.7499999999224,
        5.84745762723703,
        5.59322033906198,
        5.66666666670547,
        5.74999999992239,
        5.58333333348855,
        5.73770491803279,
        12.5833333334109,
        5.75000000011642,
        10.6779661015765,
        5.84745762723703,
        5.67796610165545,
        5.5737704916506,
        6.18644067780825,
        5.66666666670547,
        5.49999999988358,
        10.1694915254237,
        5.74999999992239,
        5.73770491803279,
        63.9166666666279,
        69.8305084746947,
        5.67796610165545,
        5.93220338983051,
        5.93220338983051,
        49.9166666667831,
        5.66666666651145,
        5.67796610165545,
        5.50000000007761,
        5.74999999992239,
        5.58333333329453,
        5.67796610165545,
        5.58333333348855,
        5.73770491803279,
        13.4745762711075,
        5.50847457627119,
        5.83333333333333,
        5.84745762703972,
        6.58333333344975,
        5.99999999996119,
        13.1967213113609,
        10.4999999998836,
        5.73770491803279,
        5.76271186444624,
        62.7966101695704,
        65.0833333334109,
        5.58333333348855,
        6.0169491526213,
        5.84745762703972,
        42.6229508196721,
        5.50847457627119,
        5.84745762723703,
        5.50847457627119,
        5.4237288134804,
        5.93220338983051,
        5.50000000007761,
        5.65573770503254,
        12.8333333332557,
        8.64406779657071,
        5.42372881367771,
        5.58333333348855,
        5.67796610185277,
        5.41666666666667,
        5.67796610165545,
        5.58333333329453,
        8.60655737704918,
        5.4237288134804,
        6.41666666682189,
        59.8333333333721,
        58.0508474576271,
        5.75000000011642,
        5.58333333329453,
        6.83333333329453,
        95.8474576270003,
        27.0338983052031,
        5.73770491803279,
        5.40983606565011,
        5.66666666670547,
        5.81967213122388,
        12.1666666667443,
        5.58333333329453,
        5.41666666666667,
        14.4999999999224,
        5.59322033886466,
        5.50847457627119,
        5.49999999988358,
        5.58333333329453,
        5.67796610185277,
        5.41666666666667,
        8.75,
        5.75000000011642,
        5.50847457627119,
        62.0833333333333,
        61.9166666667055,
        11.6666666666667,
        63.8333333334109,
        61.4166666666279,
        100.0,
        13.9999999998448,
        5.67796610165545,
        5.41666666666667,
        5.58333333329453,
        5.74999999992239,
        97.7500000000388,
        5.65573770484169,
        5.66666666670547,
        13.6666666665891,
        5.58333333348855,
        5.83333333333333,
        5.83333333333333,
        6.16666666658906,
        6.33333333321692,
        5.75000000011642,
        9.41666666670547,
        5.76271186444624,
        5.91666666655025,
        61.7500000000776,
        65.6666666665114,
        5.58333333348855,
        5.93220338983051,
        6.77966101694915,
        40.5833333332945,
        5.57377049184145,
        5.93220338983051,
        5.41666666666667,
        13.4999999999612,
        5.66666666651145,
        5.58333333348855,
        7.03389830512421,
        8.19672131147541,
        10.8333333333333,
        5.83333333333333,
        5.76271186444624,
        5.91666666674428,
        5.84745762703972,
        6.58333333325572,
        9.58333333333333,
        5.83333333333333,
        6.14754098360656,
        5.99999999996119,
        61.5000000000388,
        5.83333333333333,
        5.90163934422413,
        5.81967213103303,
        6.06557377060631,
        96.5000000000388,
        5.75000000011642,
        5.83333333333333,
        5.83333333333333,
        6.0169491526213,
        5.74999999992239,
        5.99999999996119,
        5.83333333333333,
        9.40677966109588,
        9.34426229500563,
        12.0491803278307,
        5.75000000011642,
        5.75000000011642,
        5.83333333333333,
        5.59322033886466,
        9.06779661013003,
        5.66666666670547,
        5.81967213103303,
        5.58333333329453,
        62.0491803280215,
        59.0983606556232,
        5.25000000003881,
        5.33333333325572,
        5.41666666666667,
        96.2711864407569,
        5.32786885245902,
        5.41666666666667,
        5.33898305088692,
        5.40983606545926,
        5.58333333329453,
        5.42372881367771,
        5.58333333329453,
        5.57377049184145,
        8.16666666670547,
        5.58333333329453,
        5.25000000003881,
        5.41666666666667,
        5.91666666655025,
        5.59322033906198,
        12.2881355932203,
        8.44262295085784,
        5.32786885245902,
        5.42372881367771,
        61.864406779661,
        60.8474576269608,
        5.58333333329453,
        5.41666666666667,
        5.33898305068961,
        96.6949152541189,
        5.33333333344975,
        5.41666666666667,
        5.50000000007761,
        12.2499999999612,
        5.33333333344975,
        5.41666666666667,
        5.59322033886466,
        5.40983606545926,
        8.30508474580217,
        5.33898305088692,
        5.83333333333333,
        5.58333333348855,
        5.41666666666667,
        5.41666666666667,
        5.16393442626768,
        9.0000000000388,
        5.50000000007761,
        5.40983606545926,
        60.9166666667443,
        59.2499999998836,
        5.25000000003881,
        60.7499999999224,
        72.1311475409836,
        8.60655737704918,
        62.0833333333333,
        60.7377049181091,
        5.67796610185277,
        5.08333333341094,
        5.32786885245902,
        5.49999999988358,
        5.50847457627119,
        5.76271186444624,
        8.11475409847516,
        11.9491525424518,
        5.58333333329453,
        5.41666666666667,
        5.24590163926792,
        5.16666666662786,
        5.42372881367771,
        8.58333333317811,
        5.16666666662786,
        5.50000000007761,
        61.25,
        57.7118644068586,
        5.50847457627119,
        5.41666666666667,
        5.50847457627119,
        96.0000000001552,
        5.50847457627119,
        5.33333333344975,
        5.33898305088692,
        5.25000000003881,
        5.59322033886466,
        5.49180327865036,
        5.50000000007761,
        5.40983606545926,
        9.8305084746552,
        11.9166666665114,
        5.58333333329453,
        5.57377049184145,
        5.50000000007761,
        5.33898305088692,
        5.33333333325572,
        8.38983050839565,
        5.50847457627119,
        5.58333333329453,
        60.5833333332945,
        59.7499999999612,
        5.4237288134804,
        5.33333333344975,
        5.32786885245902,
        95.6779661018133,
        5.91666666674428,
        5.58333333329453,
        5.50000000007761,
        5.81967213103303,
        5.40983606545926,
        5.08474576271186,
        12.2881355932203,
        9.24999999988358,
        17.8813559322823,
        5.4237288134804,
        5.50000000007761,
        5.4237288134804,
        5.50000000007761,
        5.24590163926792,
        6.08333333337214,
        9.16666666666667,
        5.83333333333333,
        5.41666666666667,
        59.8333333333721,
        58.75,
        5.81967213122388,
        5.58333333329453,
        11.5254237286952,
        96.9999999999224,
        14.4067796610169,
        5.24999999984478,
        5.33333333325572,
        5.25000000003881,
        5.33898305088692,
        5.40983606565011
    ]
}