{
    "Id": "m1",
    "Label": "CPUUtilization",
    "StatusCode": "Complete",
    "Timestamps": [
        "2019-07-02T09:00:00+00:00",
        "2019-07-01T09:00:00+00:00"
    ],
    "Values": [
        0.327868852459021,
        0.333333333333326
    ]
}