{
    "Id": "m1",
    "Label": "CPUUtilization",
    "StatusCode": "Complete",
    "Timestamps": [
        "2019-08-07T09:00:00+00:00",
        "2019-08-06T09:00:00+00:00",
        "2019-08-05T09:00:00+00:00",
        "2019-08-04T09:00:00+00:00",
        "2019-08-03T09:00:00+00:00",
        "2019-08-02T09:00:00+00:00",
        "2019-08-01T09:00:00+00:00",
        "2019-07-31T09:00:00+00:00",
        "2019-07-30T09:00:00+00:00",
        "2019-07-29T09:00:00+00:00",
        "2019-07-28T09:00:00+00:00",
        "2019-07-27T09:00:00+00:00",
        "2019-07-26T09:00:00+00:00",
        "2019-07-25T09:00:00+00:00",
        "2019-07-24T09:00:00+00:00",
        "2019-07-23T09:00:00+00:00",
        "2019-07-22T09:00:00+00:00",
        "2019-07-21T09:00:00+00:00",
        "2019-07-20T09:00:00+00:00",
        "2019-07-19T09:00:00+00:00",
        "2019-07-18T09:00:00+00:00",
        "2019-07-17T09:00:00+00:00",
        "2019-07-16T09:00:00+00:00",
        "2019-07-15T09:00:00+00:00",
        "2019-07-14T09:00:00+00:00",
        "2019-07-13T09:00:00+00:00",
        "2019-07-12T09:00:00+00:00",
        "2019-07-11T09:00:00+00:00",
        "2019-07-10T09:00:00+00:00",
        "2019-07-09T09:00:00+00:00",
        "2019-07-08T09:00:00+00:00",
        "2019-07-07T09:00:00+00:00",
        "2019-07-06T09:00:00+00:00",
        "2019-07-05T09:00:00+00:00",
        "2019-07-04T09:00:00+00:00",
        "2019-07-03T09:00:00+00:00",
        "2019-07-02T09:00:00+00:00",
        "2019-07-01T09:00:00+00:00",
        "2019-06-30T09:00:00+00:00",
        "2019-06-29T09:00:00+00:00",
        "2019-06-28T09:00:00+00:00",
        "2019-06-27T09:00:00+00:00",
        "2019-06-26T09:00:00+00:00",
        "2019-06-25T09:00:00+00:00",
        "2019-06-24T09:00:00+00:00",
        "2019-06-23T09:00:00+00:00",
        "2019-06-22T09:00:00+00:00",
        "2019-06-21T09:00:00+00:00",
        "2019-06-20T09:00:00+00:00",
        "2019-06-19T09:00:00+00:00",
        "2019-06-18T09:00:00+00:00",
        "2019-06-17T09:00:00+00:00",
        "2019-06-16T09:00:00+00:00",
        "2019-06-15T09:00:00+00:00",
        "2019-06-14T09:00:00+00:00",
        "2019-06-13T09:00:00+00:00",
        "2019-06-12T09:00:00+00:00",
        "2019-06-11T09:00:00+00:00",
        "2019-06-10T09:00:00+00:00",
        "2019-06-09T09:00:00+00:00",
        "2019-06-08T09:00:00+00:00",
        "2019-06-07T09:00:00+00:00",
        "2019-06-06T09:00:00+00:00",
        "2019-06-05T09:00:00+00:00",
        "2019-06-04T09:00:00+00:00",
        "2019-06-03T09:00:00+00:00",
        "2019-06-02T09:00:00+00:00",
        "2019-06-01T09:00:00+00:00",
        "2019-05-31T09:00:00+00:00",
        "2019-05-30T09:00:00+00:00",
        "2019-05-29T09:00:00+00:00",
        "2019-05-28T09:00:00+00:00",
        "2019-05-27T09:00:00+00:00",
        "2019-05-26T09:00:00+00:00",
        "2019-05-25T09:00:00+00:00",
        "2019-05-24T09:00:00+00:00",
        "2019-05-23T09:00:00+00:00",
        "2019-05-22T09:00:00+00:00",
        "2019-05-21T09:00:00+00:00",
        "2019-05-20T09:00:00+00:00",
        "2019-05-19T09:00:00+00:00",
        "2019-05-18T09:00:00+00:00",
        "2019-05-17T09:00:00+00:00",
        "2019-05-16T09:00:00+00:00",
        "2019-05-15T09:00:00+00:00",
        "2019-05-14T09:00:00+00:00",
        "2019-05-13T09:00:00+00:00",
        "2019-05-12T09:00:00+00:00",
        "2019-05-11T09:00:00+00:00",
        "2019-05-10T09:00:00+00:00"
    ],
    "Values": [
        2.038097941859857,
        1.9967994330148062,
        1.9647328275431182,
        1.8572011535334678,
        1.8890222385147446,
        1.9831415761288755,
        1.720173536650336,
        1.8863695059804304,
        1.8516040481210543,
        2.0033035132709904,
        2.011317652625942,
        1.8508990256238784,
        1.738060214360821,
        2.133053202837315,
        1.833424005890214,
        1.7870380661294805,
        1.7973224671636663,
        1.9364764623169737,
        1.9571594344005876,
        1.6123662080872416,
        1.7936292169280745,
        1.9453175898021688,
        2.0233268708494023,
        1.867815574652741,
        1.9403024094602692,
        1.9517559529528865,
        1.985440047981367,
        1.9990236112312727,
        1.7136075607421817,
        1.6442504078914058,
        1.9238372640706618,
        2.189867653675066,
        2.016397605228971,
        1.6921041312480078,
        1.8390059775529448,
        1.990987834785024,
        1.9745605731661173,
        1.9031934482742376,
        1.8949806748158438,
        1.7991795294350599,
        1.9608008966477712,
        2.0531499031334843,
        1.7166433477725964,
        1.8961677707380724,
        1.6084792071871818,
        1.8658144184367942,
        2.0283561144609994,
        1.9843465295763971,
        2.032576662350317,
        1.959485574354864,
        1.7950854397183362,
        1.938760174535898,
        2.0225722926255676,
        1.8636817883585783,
        2.0242413285236553,
        1.6767459560022708,
        1.8619134935505146,
        1.8950828630828955,
        2.102712248685237,
        2.193822445203317,
        2.0332434163810937,
        2.0360319764161705,
        2.0231931569349353,
        2.1295502300593023,
        1.8750566712180303,
        2.219788310132564,
        2.0781219830367195,
        2.4251432178500876,
        2.0844694909712977,
        1.9907215878110989,
        2.160910438084654,
        2.0361293169671315,
        1.8812819932085088,
        1.8052340928035566,
        2.116990875859205,
        2.1316049467398126,
        2.4583011415088087,
        1.7956164689648928,
        1.8700643461853028,
        2.0581005314435714,
        1.8929569605002323,
        2.1327909224547184,
        2.1789366428522223,
        1.912876772110269,
        2.135085733181165,
        1.6872973974252101,
        1.9906555438558429,
        1.8913193073449572,
        2.1673180731687487,
        1.7989914592028142
    ]
}